module gitlab.com/iklabib/markisa

go 1.22.0

require (
	github.com/gorilla/sessions v1.2.2
	github.com/klauspost/compress v1.17.7
	github.com/labstack/echo-contrib v0.15.0
	github.com/labstack/echo/v4 v4.11.4
)

require (
	github.com/dchest/uniuri v1.2.0
	github.com/golang-jwt/jwt v3.2.2+incompatible // indirect
	github.com/gorilla/context v1.1.2 // indirect
	github.com/gorilla/securecookie v1.1.2 // indirect
	github.com/labstack/gommon v0.4.2 // indirect
	github.com/mattn/go-colorable v0.1.13 // indirect
	github.com/mattn/go-isatty v0.0.20 // indirect
	github.com/valyala/bytebufferpool v1.0.0 // indirect
	github.com/valyala/fasttemplate v1.2.2 // indirect
	golang.org/x/crypto v0.21.0 // indirect
	golang.org/x/net v0.22.0 // indirect
	golang.org/x/sys v0.18.0 // indirect
	golang.org/x/text v0.14.0 // indirect
	golang.org/x/time v0.5.0 // indirect
)
